sistema elevador/simulation/qsim/Sistema_Elevador.msim.vcd
$comment
	File created using the following command:
		vcd file Sistema_Elevador.msim.vcd -direction
$end
$date
	Sun Nov  3 12:39:22 2024
$end
$version
	ModelSim Version 2020.1
$end
$timescale
	1ps
$end

$scope module controle_andares_vlg_vec_tst $end
$var reg 1 ! clock $end
$var reg 1 " controleSubidaDescida $end
$var wire 1 # andar [1] $end
$var wire 1 $ andar [0] $end

$scope module i1 $end
$var wire 1 % gnd $end
$var wire 1 & vcc $end
$var wire 1 ' unknown $end
$var tri1 1 ( devclrn $end
$var tri1 1 ) devpor $end
$var tri1 1 * devoe $end
$var wire 1 + clock~combout $end
$var wire 1 , controleSubidaDescida~combout $end
$var wire 1 - FlipFlop_Q1|Q~regout $end
$var wire 1 . FlipFlop_Q0|Q~regout $end
$upscope $end
$upscope $end
$enddefinitions $end
#0
$dumpvars
0!
1"
0$
0#
0%
1&
x'
1(
1)
1*
0+
1,
0-
0.
$end
#5000
1!
1+
1.
1$
#10000
0!
0+
#15000
0"
1!
0,
1+
0.
1-
0$
1#
#20000
0!
0+
#25000
1"
1!
1,
1+
1.
0-
1$
0#
#30000
0!
0+
#35000
0"
1!
0,
1+
0.
1-
0$
1#
#40000
1"
0!
1,
0+
#45000
0"
1!
0,
1+
1.
1$
#50000
1"
0!
1,
0+
#55000
1!
1+
#60000
0!
0+
#65000
0"
1!
0,
1+
#70000
1"
0!
1,
0+
#75000
0"
1!
0,
1+
#80000
0!
0+
#85000
1"
1!
1,
1+
0.
0$
#90000
0!
0+
#95000
1!
1+
1.
1$
#100000
0!
0+
#105000
0"
1!
0,
1+
#110000
0!
0+
#115000
1!
1+
0.
0$
#120000
0!
0+
#125000
1!
1+
1.
0-
1$
0#
#130000
1"
0!
1,
0+
#135000
1!
1+
0.
1-
0$
1#
#140000
0!
0+
#145000
1!
1+
1.
1$
#150000
0!
0+
#155000
1!
1+
#160000
0"
0!
0,
0+
#165000
1!
1+
0.
0$
#170000
1"
0!
1,
0+
#175000
1!
1+
1.
1$
