sistema elevador/simulation/qsim/Sistema_Elevador.msim.vcd
$comment
	File created using the following command:
		vcd file Sistema_Elevador.msim.vcd -direction
$end
$date
	Sat Nov  9 10:07:28 2024
$end
$version
	ModelSim Version 2020.1
$end
$timescale
	1ps
$end

$scope module controle_andares_vlg_vec_tst $end
$var reg 1 ! clock_in $end
$var reg 2 " seletor_andar [1:0] $end
$var wire 1 # andar [1] $end
$var wire 1 $ andar [0] $end

$scope module i1 $end
$var wire 1 % gnd $end
$var wire 1 & vcc $end
$var wire 1 ' unknown $end
$var tri1 1 ( devclrn $end
$var tri1 1 ) devpor $end
$var tri1 1 * devoe $end
$var wire 1 + FlipFlop_Q1|Q~regout $end
$var wire 1 , mux_para_clock|and0~0_combout $end
$var wire 1 - clock_in~combout $end
$var wire 1 . mux_para_clock|and0~combout $end
$var wire 1 / FlipFlop_Q0|Q~regout $end
$var wire 1 0 seletor_andar~combout [1] $end
$var wire 1 1 seletor_andar~combout [0] $end
$upscope $end
$upscope $end
$enddefinitions $end
#0
$dumpvars
0!
b11 "
0$
0#
0%
1&
x'
1(
1)
1*
0+
1,
0-
0.
0/
11
10
$end
#5000
1!
1-
1.
1/
1$
#10000
0!
0-
0.
#15000
1!
1-
1.
0/
1+
0$
1#
#20000
0!
0-
0.
#25000
1!
1-
1.
1/
0,
1$
0.
#30000
0!
0-
#35000
1!
1-
#40000
0!
0-
#45000
1!
1-
#50000
0!
0-
#55000
1!
1-
#60000
b1 "
b0 "
0!
01
00
0-
1,
#65000
1!
1-
1.
0/
0$
#70000
0!
0-
0.
#75000
1!
1-
1.
1/
0+
1$
0#
#80000
0!
0-
0.
#85000
1!
1-
1.
0/
0,
0$
0.
#90000
b10 "
0!
10
0-
1,
#95000
1!
1-
1.
1/
1$
#100000
0!
0-
0.
#105000
1!
1-
1.
0/
1+
0,
0$
1#
0.
#110000
0!
0-
#115000
1!
1-
#120000
b0 "
0!
00
0-
1,
#125000
1!
1-
1.
1/
0+
1$
0#
#130000
0!
0-
0.
#135000
1!
1-
1.
0/
0,
0$
0.
#140000
0!
0-
#145000
1!
1-
#150000
0!
0-
#155000
1!
1-
#160000
b1 "
b11 "
0!
11
10
0-
1,
#165000
1!
1-
1.
1/
1$
#170000
0!
0-
0.
#175000
1!
1-
1.
0/
1+
0$
1#
#180000
b1 "
0!
00
0-
0.
#185000
1!
1-
1.
1/
0+
0,
1$
0#
0.
