sistema elevador/simulation/qsim/Sistema_Elevador.msim.vcd
$comment
	File created using the following command:
		vcd file Sistema_Elevador.msim.vcd -direction
$end
$date
	Fri Nov 29 10:11:22 2024
$end
$version
	ModelSim Version 2020.1
$end
$timescale
	1ps
$end

$scope module main_vlg_vec_tst $end
$var reg 1 ! btn_add $end
$var reg 1 " btn_sub $end
$var reg 1 # chave0 $end
$var reg 1 $ chave1 $end
$var reg 1 % clock_in $end
$var wire 1 & a $end
$var wire 1 ' b $end
$var wire 1 ( c $end
$var wire 1 ) d $end
$var wire 1 * d1 $end
$var wire 1 + d2 $end
$var wire 1 , d3 $end
$var wire 1 - d4 $end
$var wire 1 . e $end
$var wire 1 / f $end
$var wire 1 0 g $end
$var wire 1 1 l0 $end
$var wire 1 2 l1 $end
$var wire 1 3 l2 $end
$var wire 1 4 l3 $end
$var wire 1 5 l4 $end
$var wire 1 6 l5 $end
$var wire 1 7 l6 $end
$var wire 1 8 l7 $end
$var wire 1 9 l8 $end
$var wire 1 : l9 $end
$var wire 1 ; led_rgb [1] $end
$var wire 1 < led_rgb [0] $end
$var wire 1 = p $end

$scope module i1 $end
$var wire 1 > gnd $end
$var wire 1 ? vcc $end
$var wire 1 @ unknown $end
$var tri1 1 A devclrn $end
$var tri1 1 B devpor $end
$var tri1 1 C devoe $end
$var wire 1 D clock_in~combout $end
$var wire 1 E df|FF_jk1|q~regout $end
$var wire 1 F df|FF_jk2|q~regout $end
$var wire 1 G df|FF_jk3|q~regout $end
$var wire 1 H df|FF_jk4|q~regout $end
$var wire 1 I df|FF_jk5|q~regout $end
$var wire 1 J df|FF_jk6|q~regout $end
$var wire 1 K df|FF_jk7|q~regout $end
$var wire 1 L df|FF_jk8|q~regout $end
$var wire 1 M df|FF_jk9|q~regout $end
$var wire 1 N df|FF_jk10|q~regout $end
$var wire 1 O df|FF_jk11|q~regout $end
$var wire 1 P df|FF_jk12|q~regout $end
$var wire 1 Q df|FF_jk13|q~regout $end
$var wire 1 R df|FF_jk14|q~regout $end
$var wire 1 S df|FF_jk15|q~regout $end
$var wire 1 T df|FF_jk16|q~regout $end
$var wire 1 U df|FF_jk17|q~regout $end
$var wire 1 V df|FF_jk18|q~regout $end
$var wire 1 W df|FF_jk19|q~regout $end
$var wire 1 X df|FF_jk20|q~regout $end
$var wire 1 Y df|FF_jk21|q~regout $end
$var wire 1 Z df|FF_jk22|q~regout $end
$var wire 1 [ btn_sub~combout $end
$var wire 1 \ comb_7|d0|Q~regout $end
$var wire 1 ] btn_add~combout $end
$var wire 1 ^ contador_pessoas_elevador|Y0|Q~regout $end
$var wire 1 _ comb_6|d0|Q~regout $end
$var wire 1 ` contador_pessoas_elevador|Y1|Q~regout $end
$var wire 1 a contador_pessoas_elevador|control_quant_pes|And5~0 $end
$var wire 1 b df|FF_jk23|q~regout $end
$var wire 1 c df|FF_jk24|q~regout $end
$var wire 1 d df|FF_jk25|q~regout $end
$var wire 1 e df|FF_jk26|q~regout $end
$var wire 1 f chave0~combout $end
$var wire 1 g chave1~combout $end
$var wire 1 h controlAndares|FlipFlop_Q0|Q~regout $end
$var wire 1 i controlAndares|FlipFlop_Q1|Q~regout $end
$var wire 1 j controlAndares|comparar_andares|or1~0_combout $end
$var wire 1 k gerenciandoDisplay|Mux_seg_a|or0~0_combout $end
$var wire 1 l gerenciandoDisplay|Mux_seg_b|or0~0_combout $end
$var wire 1 m gerenciandoDisplay|Mux_seg_c|and0~combout $end
$var wire 1 n gerenciandoDisplay|Mux_seg_d|and0~combout $end
$var wire 1 o gerenciandoDisplay|Mux_seg_e|or0~0_combout $end
$var wire 1 p gerenciandoDisplay|Mux_seg_f|or0~0_combout $end
$upscope $end
$upscope $end
$enddefinitions $end
#0
$dumpvars
x!
x"
1#
1$
0%
1&
1'
1(
0)
0*
1+
1,
1-
0.
0/
00
11
02
03
04
05
06
07
08
09
1:
1<
0;
1=
0>
1?
x@
1A
1B
1C
0D
0E
0F
0G
0H
0I
0J
0K
0L
0M
0N
0O
0P
0Q
0R
0S
0T
0U
0V
0W
0X
0Y
0Z
x[
0\
x]
0^
0_
0`
0a
0b
0c
0d
0e
1f
1g
0h
0i
1j
0k
1l
0m
0n
0o
0p
$end
#2500
1%
1D
1E
1F
1G
1H
1I
1J
1K
1L
1M
1N
1O
1o
1m
1k
1*
0+
1.
0&
0(
1P
1Q
1R
1S
1T
1U
1V
1W
1X
1Y
1Z
1b
x_
x\
1c
1d
1e
1h
#5000
0%
0D
#7500
1%
1D
0E
#10000
0%
0D
#12500
1%
1D
1E
0F
#15000
0%
0D
#17500
1%
1D
0E
#20000
0%
0D
#22500
1%
1D
1E
1F
0G
#25000
0%
0D
#27500
1%
1D
0E
#30000
0%
0D
#32500
1%
1D
1E
0F
#35000
0%
0D
#37500
1%
1D
0E
#40000
0%
0D
#42500
1%
1D
1E
1F
1G
0H
#45000
0%
0D
#47500
1%
1D
0E
#50000
0%
0D
#52500
1%
1D
1E
0F
#55000
0%
0D
#57500
1%
1D
0E
#60000
0%
0D
#62500
1%
1D
1E
1F
0G
#65000
0%
0D
#67500
1%
1D
0E
#70000
0%
0D
#72500
1%
1D
1E
0F
#75000
0%
0D
#77500
1%
1D
0E
#80000
0%
0D
#82500
1%
1D
1E
1F
1G
1H
0I
#85000
0%
0D
#87500
1%
1D
0E
#90000
0%
0D
#92500
1%
1D
1E
0F
#95000
0%
0D
#97500
1%
1D
0E
#100000
0%
0D
#102500
1%
1D
1E
1F
0G
#105000
0%
0D
#107500
1%
1D
0E
#110000
0%
0D
#112500
1%
1D
1E
0F
#115000
0%
0D
#117500
1%
1D
0E
#120000
0%
0D
#122500
1%
1D
1E
1F
1G
0H
#125000
0%
0D
#127500
1%
1D
0E
#130000
0%
0D
#132500
1%
1D
1E
0F
#135000
0%
0D
#137500
1%
1D
0E
#140000
0%
0D
#142500
1%
1D
1E
1F
0G
#145000
0%
0D
#147500
1%
1D
0E
#150000
0%
0D
#152500
1%
1D
1E
0F
#155000
0%
0D
#157500
1%
1D
0E
#160000
0%
0D
#162500
1%
1D
1E
1F
1G
1H
1I
0J
#165000
0%
0D
#167500
1%
1D
0E
#170000
0%
0D
#172500
1%
1D
1E
0F
#175000
0%
0D
#177500
1%
1D
0E
#180000
0%
0D
#182500
1%
1D
1E
1F
0G
#185000
0%
0D
#187500
1%
1D
0E
#190000
0%
0D
#192500
1%
1D
1E
0F
#195000
0%
0D
#197500
1%
1D
0E
#200000
0%
0D
#202500
1%
1D
1E
1F
1G
0H
#205000
0%
0D
#207500
1%
1D
0E
#210000
0%
0D
#212500
1%
1D
1E
0F
#215000
0%
0D
#217500
1%
1D
0E
#220000
0%
0D
#222500
1%
1D
1E
1F
0G
#225000
0%
0D
#227500
1%
1D
0E
#230000
0%
0D
#232500
1%
1D
1E
0F
#235000
0%
0D
#237500
1%
1D
0E
#240000
0%
0D
#242500
1%
1D
1E
1F
1G
1H
0I
#245000
0%
0D
#247500
1%
1D
0E
#250000
0%
0D
#252500
1%
1D
1E
0F
#255000
0%
0D
#257500
1%
1D
0E
#260000
0%
0D
#262500
1%
1D
1E
1F
0G
#265000
0%
0D
#267500
1%
1D
0E
#270000
0%
0D
#272500
1%
1D
1E
0F
#275000
0%
0D
#277500
1%
1D
0E
#280000
0%
0D
#282500
1%
1D
1E
1F
1G
0H
#285000
0%
0D
#287500
1%
1D
0E
#290000
0%
0D
#292500
1%
1D
1E
0F
#295000
0%
0D
#297500
1%
1D
0E
#300000
0%
0D
#302500
1%
1D
1E
1F
0G
#305000
0%
0D
#307500
1%
1D
0E
#310000
0%
0D
#312500
1%
1D
1E
0F
#315000
0%
0D
#317500
1%
1D
0E
#320000
0%
0D
#322500
1%
1D
1E
1F
1G
1H
1I
1J
0K
#325000
0%
0D
#327500
1%
1D
0E
#330000
0%
0D
#332500
1%
1D
1E
0F
#335000
0%
0D
#337500
1%
1D
0E
#340000
0%
0D
#342500
1%
1D
1E
1F
0G
#345000
0%
0D
#347500
1%
1D
0E
#350000
0%
0D
#352500
1%
1D
1E
0F
#355000
0%
0D
#357500
1%
1D
0E
#360000
0%
0D
#362500
1%
1D
1E
1F
1G
0H
#365000
0%
0D
#367500
1%
1D
0E
#370000
0%
0D
#372500
1%
1D
1E
0F
#375000
0%
0D
#377500
1%
1D
0E
#380000
0%
0D
#382500
1%
1D
1E
1F
0G
#385000
0%
0D
#387500
1%
1D
0E
#390000
0%
0D
#392500
1%
1D
1E
0F
#395000
0%
0D
#397500
1%
1D
0E
#400000
0%
0D
#402500
1%
1D
1E
1F
1G
1H
0I
#405000
0%
0D
#407500
1%
1D
0E
#410000
0%
0D
#412500
1%
1D
1E
0F
#415000
0%
0D
#417500
1%
1D
0E
#420000
0%
0D
#422500
1%
1D
1E
1F
0G
#425000
0%
0D
#427500
1%
1D
0E
#430000
0%
0D
#432500
1%
1D
1E
0F
#435000
0%
0D
#437500
1%
1D
0E
#440000
0%
0D
#442500
1%
1D
1E
1F
1G
0H
#445000
0%
0D
#447500
1%
1D
0E
#450000
0%
0D
#452500
1%
1D
1E
0F
#455000
0%
0D
#457500
1%
1D
0E
#460000
0%
0D
#462500
1%
1D
1E
1F
0G
#465000
0%
0D
#467500
1%
1D
0E
#470000
0%
0D
#472500
1%
1D
1E
0F
#475000
0%
0D
#477500
1%
1D
0E
#480000
0%
0D
#482500
1%
1D
1E
1F
1G
1H
1I
0J
#485000
0%
0D
#487500
1%
1D
0E
#490000
0%
0D
#492500
1%
1D
1E
0F
#495000
0%
0D
#497500
1%
1D
0E
#500000
0%
0D
#502500
1%
1D
1E
1F
0G
#505000
0%
0D
#507500
1%
1D
0E
#510000
0%
0D
#512500
1%
1D
1E
0F
#515000
0%
0D
#517500
1%
1D
0E
#520000
0%
0D
#522500
1%
1D
1E
1F
1G
0H
#525000
0%
0D
#527500
1%
1D
0E
#530000
0%
0D
#532500
1%
1D
1E
0F
#535000
0%
0D
#537500
1%
1D
0E
#540000
0%
0D
#542500
1%
1D
1E
1F
0G
#545000
0%
0D
#547500
1%
1D
0E
#550000
0%
0D
#552500
1%
1D
1E
0F
#555000
0%
0D
#557500
1%
1D
0E
#560000
0%
0D
#562500
1%
1D
1E
1F
1G
1H
0I
#565000
0%
0D
#567500
1%
1D
0E
#570000
0%
0D
#572500
1%
1D
1E
0F
#575000
0%
0D
#577500
1%
1D
0E
#580000
0%
0D
#582500
1%
1D
1E
1F
0G
#585000
0%
0D
#587500
1%
1D
0E
#590000
0%
0D
#592500
1%
1D
1E
0F
#595000
0%
0D
#597500
1%
1D
0E
#600000
0%
0D
#602500
1%
1D
1E
1F
1G
0H
#605000
0%
0D
#607500
1%
1D
0E
#610000
0%
0D
#612500
1%
1D
1E
0F
#615000
0%
0D
#617500
1%
1D
0E
#620000
0%
0D
#622500
1%
1D
1E
1F
0G
#625000
0%
0D
#627500
1%
1D
0E
#630000
0%
0D
#632500
1%
1D
1E
0F
#635000
0%
0D
#637500
1%
1D
0E
#640000
0%
0D
#642500
1%
1D
1E
1F
1G
1H
1I
1J
1K
0L
#645000
0%
0D
#647500
1%
1D
0E
#650000
0%
0D
#652500
1%
1D
1E
0F
#655000
0%
0D
#657500
1%
1D
0E
#660000
0%
0D
#662500
1%
1D
1E
1F
0G
#665000
0%
0D
#667500
1%
1D
0E
#670000
0%
0D
#672500
1%
1D
1E
0F
#675000
0%
0D
#677500
1%
1D
0E
#680000
0%
0D
#682500
1%
1D
1E
1F
1G
0H
#685000
0%
0D
#687500
1%
1D
0E
#690000
0%
0D
#692500
1%
1D
1E
0F
#695000
0%
0D
#697500
1%
1D
0E
#700000
0%
0D
#702500
1%
1D
1E
1F
0G
#705000
0%
0D
#707500
1%
1D
0E
#710000
0%
0D
#712500
1%
1D
1E
0F
#715000
0%
0D
#717500
1%
1D
0E
#720000
0%
0D
#722500
1%
1D
1E
1F
1G
1H
0I
#725000
0%
0D
#727500
1%
1D
0E
#730000
0%
0D
#732500
1%
1D
1E
0F
#735000
0%
0D
#737500
1%
1D
0E
#740000
0%
0D
#742500
1%
1D
1E
1F
0G
#745000
0%
0D
#747500
1%
1D
0E
#750000
0%
0D
#752500
1%
1D
1E
0F
#755000
0%
0D
#757500
1%
1D
0E
#760000
0%
0D
#762500
1%
1D
1E
1F
1G
0H
#765000
0%
0D
#767500
1%
1D
0E
#770000
0%
0D
#772500
1%
1D
1E
0F
#775000
0%
0D
#777500
1%
1D
0E
#780000
0%
0D
#782500
1%
1D
1E
1F
0G
#785000
0%
0D
#787500
1%
1D
0E
#790000
0%
0D
#792500
1%
1D
1E
0F
#795000
0%
0D
#797500
1%
1D
0E
#800000
0%
0D
#802500
1%
1D
1E
1F
1G
1H
1I
0J
#805000
0%
0D
#807500
1%
1D
0E
#810000
0%
0D
#812500
1%
1D
1E
0F
#815000
0%
0D
#817500
1%
1D
0E
#820000
0%
0D
#822500
1%
1D
1E
1F
0G
#825000
0%
0D
#827500
1%
1D
0E
#830000
0%
0D
#832500
1%
1D
1E
0F
#835000
0%
0D
#837500
1%
1D
0E
#840000
0%
0D
#842500
1%
1D
1E
1F
1G
0H
#845000
0%
0D
#847500
1%
1D
0E
#850000
0%
0D
#852500
1%
1D
1E
0F
#855000
0%
0D
#857500
1%
1D
0E
#860000
0%
0D
#862500
1%
1D
1E
1F
0G
#865000
0%
0D
#867500
1%
1D
0E
#870000
0%
0D
#872500
1%
1D
1E
0F
#875000
0%
0D
#877500
1%
1D
0E
#880000
0%
0D
#882500
1%
1D
1E
1F
1G
1H
0I
#885000
0%
0D
#887500
1%
1D
0E
#890000
0%
0D
#892500
1%
1D
1E
0F
#895000
0%
0D
#897500
1%
1D
0E
#900000
0%
0D
#902500
1%
1D
1E
1F
0G
#905000
0%
0D
#907500
1%
1D
0E
#910000
0%
0D
#912500
1%
1D
1E
0F
#915000
0%
0D
#917500
1%
1D
0E
#920000
0%
0D
#922500
1%
1D
1E
1F
1G
0H
#925000
0%
0D
#927500
1%
1D
0E
#930000
0%
0D
#932500
1%
1D
1E
0F
#935000
0%
0D
#937500
1%
1D
0E
#940000
0%
0D
#942500
1%
1D
1E
1F
0G
#945000
0%
0D
#947500
1%
1D
0E
#950000
0%
0D
#952500
1%
1D
1E
0F
#955000
0%
0D
#957500
1%
1D
0E
#960000
0%
0D
#962500
1%
1D
1E
1F
1G
1H
1I
1J
0K
#965000
0%
0D
#967500
1%
1D
0E
#970000
0%
0D
#972500
1%
1D
1E
0F
#975000
0%
0D
#977500
1%
1D
0E
#980000
0%
0D
#982500
1%
1D
1E
1F
0G
#985000
0%
0D
#987500
1%
1D
0E
#990000
0%
0D
#992500
1%
1D
1E
0F
#995000
0%
0D
#997500
1%
1D
0E
